[
	{
            "img": "img/products/product-promo-1.png",
            "title": "Lorem ipsum dolor sit amet, consectetur adipisicing elit.",
            "time": "34 minutes ago",
            "author": "Bruce Lee",
            "desc": "Lorem ipsum dolor sit amet, consectetur adipisicing elit. Eos excepturi architecto, reprehenderit optio nemo quae quos, non soluta vero repellendus!",
            "desc_detail": "<p>Lorem ipsum dolor sit amet, consectetur adipisicing elit. Inventore modi id, excepturi consectetur, distinctio nobis est, accusamus, libero dolore ab quis. Asperiores quasi harum adipisci saepe, ad omnis debitis ratione.</p><p>Lorem ipsum dolor sit amet, consectetur adipisicing elit. Est placeat qui illum nostrum quae magnam beatae, incidunt nesciunt perspiciatis, aut. Amet dolore delectus blanditiis quisquam ut, maxime iste sint, rerum!</p>"
	},
	{
            "img": "img/products/product-promo-2.png",
            "title": "Lorem ipsum dolor sit amet, consectetur adipisicing elit.",
            "time": "34 minutes ago",
            "author": "Bruce Lee",
            "desc": "Lorem ipsum dolor sit amet, consectetur adipisicing elit. Eos excepturi architecto, reprehenderit optio nemo quae quos, non soluta vero repellendus!",
            "desc_detail": "<p>Lorem ipsum dolor sit amet, consectetur adipisicing elit. Inventore modi id, excepturi consectetur, distinctio nobis est, accusamus, libero dolore ab quis. Asperiores quasi harum adipisci saepe, ad omnis debitis ratione.</p><p>Lorem ipsum dolor sit amet, consectetur adipisicing elit. Est placeat qui illum nostrum quae magnam beatae, incidunt nesciunt perspiciatis, aut. Amet dolore delectus blanditiis quisquam ut, maxime iste sint, rerum!</p>"
	},
	{
            "img": "img/products/product-promo-3.png",
            "title": "Lorem ipsum dolor sit amet, consectetur adipisicing elit.",
            "time": "34 minutes ago",
            "author": "Bruce Lee",
            "desc": "Lorem ipsum dolor sit amet, consectetur adipisicing elit. Eos excepturi architecto, reprehenderit optio nemo quae quos, non soluta vero repellendus!",
            "desc_detail": "<p>Lorem ipsum dolor sit amet, consectetur adipisicing elit. Inventore modi id, excepturi consectetur, distinctio nobis est, accusamus, libero dolore ab quis. Asperiores quasi harum adipisci saepe, ad omnis debitis ratione.</p><p>Lorem ipsum dolor sit amet, consectetur adipisicing elit. Est placeat qui illum nostrum quae magnam beatae, incidunt nesciunt perspiciatis, aut. Amet dolore delectus blanditiis quisquam ut, maxime iste sint, rerum!</p>"
	},
	{
            "img": "img/products/product-promo-1.png",
            "title": "Lorem ipsum dolor sit amet, consectetur adipisicing elit.",
            "time": "34 minutes ago",
            "author": "Bruce Lee",
            "desc": "Lorem ipsum dolor sit amet, consectetur adipisicing elit. Eos excepturi architecto, reprehenderit optio nemo quae quos, non soluta vero repellendus!",
            "desc_detail": "<p>Lorem ipsum dolor sit amet, consectetur adipisicing elit. Inventore modi id, excepturi consectetur, distinctio nobis est, accusamus, libero dolore ab quis. Asperiores quasi harum adipisci saepe, ad omnis debitis ratione.</p><p>Lorem ipsum dolor sit amet, consectetur adipisicing elit. Est placeat qui illum nostrum quae magnam beatae, incidunt nesciunt perspiciatis, aut. Amet dolore delectus blanditiis quisquam ut, maxime iste sint, rerum!</p>"
	},
	{
            "img": "img/products/product-promo-2.png",
            "title": "Lorem ipsum dolor sit amet, consectetur adipisicing elit.",
            "time": "34 minutes ago",
            "author": "Bruce Lee",
            "desc": "Lorem ipsum dolor sit amet, consectetur adipisicing elit. Eos excepturi architecto, reprehenderit optio nemo quae quos, non soluta vero repellendus!",
            "desc_detail": "<p>Lorem ipsum dolor sit amet, consectetur adipisicing elit. Inventore modi id, excepturi consectetur, distinctio nobis est, accusamus, libero dolore ab quis. Asperiores quasi harum adipisci saepe, ad omnis debitis ratione.</p><p>Lorem ipsum dolor sit amet, consectetur adipisicing elit. Est placeat qui illum nostrum quae magnam beatae, incidunt nesciunt perspiciatis, aut. Amet dolore delectus blanditiis quisquam ut, maxime iste sint, rerum!</p>"
	},
	{
            "img": "img/products/product-promo-3.png",
            "title": "Lorem ipsum dolor sit amet, consectetur adipisicing elit.",
            "time": "34 minutes ago",
            "author": "Bruce Lee",
            "desc": "Lorem ipsum dolor sit amet, consectetur adipisicing elit. Eos excepturi architecto, reprehenderit optio nemo quae quos, non soluta vero repellendus!",
            "desc_detail": "<p>Lorem ipsum dolor sit amet, consectetur adipisicing elit. Inventore modi id, excepturi consectetur, distinctio nobis est, accusamus, libero dolore ab quis. Asperiores quasi harum adipisci saepe, ad omnis debitis ratione.</p><p>Lorem ipsum dolor sit amet, consectetur adipisicing elit. Est placeat qui illum nostrum quae magnam beatae, incidunt nesciunt perspiciatis, aut. Amet dolore delectus blanditiis quisquam ut, maxime iste sint, rerum!</p>"
	}
]
