[
	{
		"img": "img/gallery/animal.jpg",
		"title": "Photo 1"
	},
	{
		"img": "img/gallery/person.jpg",
		"title": "Photo 2"
	},
	{
		"img": "img/gallery/building.jpg",
		"title": "Photo 3"
	},
	{
		"img": "img/gallery/pattern.jpg",
		"title": "Photo 4"
	},
	{
		"img": "img/gallery/landscape.jpg",
		"title": "Photo 5"
	}
]